김광수_사례연구
…
1번 문제의 결과인 data.frame변수를 이용하여 나이에 따른 월급 변화를 성별을 분리하여 시각화 하시오.

welfare%>%
  filter(!is.na(income))%>%
  group_by(age,gender)%>%
  summarise(meanincome=mean(income),
            sdincome=sd(income),
            medianincome=median(income),
            minincome=min(income),
            maxincome=max(income),
            cnt=n())

## `summarise()` has grouped output by 'age'. You can override using the `.groups` argument.

## # A tibble: 134 x 8
## # Groups:   age [69]
##      age gender meanincome sdincome medianincome minincome maxincome   cnt
##    <dbl> <fct>       <dbl>    <dbl>        <dbl>     <dbl>     <dbl> <int>
##  1    19 female       147.     8.27        147.      142.       153.     2
##  2    19 male          69     NA            69        69         69      1
##  3    20 female       107.    64.0         110        22        258.    19
##  4    20 male         102.    23.4          97.5      63.6      140      8
##  5    21 female       140.    82.6         150        15        358.    17
##  6    21 male         118.    65.1         103        36.7      280     14
##  7    22 female       139.    76.1         120        40        350     19
##  8    22 male         153.    61.3         139.       96        240      4
##  9    23 female       126.    63.5         136        20        302.    40
## 10    23 male         158.    63.2         155        60        280     13
## # ... with 124 more rows
…
문7

1번 문제의 결과인 data.frame변수를 이용하여 직업별 월급의 차이가 나는지 분석하고, 만약 월급의 차이가 나면 어떤 직업이 월급이 가장 많은지 상위 10개 직업군만 시각화하시오.

직업별 월급의 추이를 평균월급 순으로 정렬

welfare%>%
  filter(!is.na(income))%>%
  group_by(code_job)%>%
  summarise(mean=mean(income),
            sd=sd(income),
            cnt=n())%>%
  arrange(-mean)

## # A tibble: 142 x 4
##    code_job  mean    sd   cnt
##       <dbl> <dbl> <dbl> <int>
##  1      111  750  707.      2
##  2      132  726. 301.     10
##  3      241  573. 440.      5
##  4      742  572.  98.9     3
##  5      134  557. 421.      3
##  6      131  550. 141.      8
##  7      831  532. 336.      5
##  8      232  528. 290.      5
##  9      235  509. 206.     45
## 10      272  503. 315.     10
## # ... with 132 more rows
…
ratiogr<-welfare%>%
  group_by(region,agegrade)%>%
  summarise(total=n())

## `summarise()` has grouped output by 'region'. You can override using the `.groups` argument.

ratiogr<-ratiogr%>%
  mutate(percent=(total/sum(total)*100))

#도표
ratiogr

## # A tibble: 21 x 4
## # Groups:   region [7]
##    region                agegrade total percent
##    <fct>                 <fct>    <int>   <dbl>
##  1 강원/충북             middle     446    35.5
##  2 강원/충북             old        514    40.9
##  3 강원/충북             young      297    23.6
##  4 광주/전남/전북/제주도 middle     991    33.9
##  5 광주/전남/전북/제주도 old       1158    39.6
##  6 광주/전남/전북/제주도 young      773    26.5
##  7 대구/경북             middle     667    32.8
##  8 대구/경북             old        880    43.2
##  9 대구/경북             young      489    24.0
## 10 대전/충남             middle     550    37.5
## # ... with 11 more rows
…
